@relation Normelized_Birds

@attribute huml numeric
@attribute humw numeric
@attribute ulnal numeric
@attribute ulnaw numeric
@attribute feml numeric
@attribute femw numeric
@attribute tibl numeric
@attribute tibw numeric
@attribute tarl numeric
@attribute tarw numeric
@attribute type {SW,W,T,R,P,SO}

@data
0.560719,0.642845,0.479871,0.637909,0.550796,0.546456,0,0.603583,0.515512,0.575302,SW
0.586272,0.640113,0.512765,0.692573,0.602216,0.605926,0.709773,0.647888,0.53794,0.589454,SW
0.558034,0.625568,0.468417,0.669613,0.563749,0.567288,0.693186,0.604559,0.51226,0.529728,SW
0.550189,0.585162,0.453163,0.628734,0.531924,0.52672,0.670522,0.536654,0.490323,0.536504,SW
0.493629,0.525698,0.384613,0.529762,0.459943,0.424691,0.615858,0.48209,0.453267,0.508513,SW
0.489869,0.521162,0.375261,0.500685,0.624631,0.615922,0.61904,0.450243,0.423641,0.475597,SW
0.557233,0.600157,0.460366,0.605285,0.5535,0.514157,0.678406,0.554759,0.502992,0.557827,SW
0.580424,0.583884,0.489949,0.609732,0.577607,0.554921,0.695531,0.581481,0.509144,0.57274,SW
0.66215,0.700133,0.621739,0.729683,0.703483,0.699713,0.793384,0.731708,0.66486,0.61754,SW
0.716605,0.804496,0.683724,0.785956,0.781577,0.822884,0.816428,0.838034,0.743291,0.739108,SW
0.751036,0.838769,0.707269,0.869659,0.835252,0.844111,0.862868,0.885662,0.774164,0.753719,SW
0.782959,0.783304,0.699629,0.873351,0.678438,0.799889,0.931067,0.876976,0.789333,0.633586,SW
0.762107,0.727873,0.67961,0.857898,0.647458,0.780243,0.923811,0.946149,0.758865,0.692675,SW
0.723695,0.648247,0.633384,0.753269,0.575935,0.758946,0.884209,0.802549,0.722381,0.607674,SW
0.724196,0.658817,0.633699,0.734901,0.566375,0.695332,0.884209,0.798402,0.730723,0.531678,SW
0.708375,0.637913,0.620045,0.708107,0.528752,0.711163,0.902367,0.86509,0.727352,0.546876,SW
0.698017,0.616904,0.601217,0.70949,0.508995,0.675767,0.887605,0.830969,0.716801,0.547803,SW
0.676052,0.604417,0.577548,0.708799,0.467459,0.698258,0.866547,0.827665,0.686518,0.523806,SW
0.681348,0.614558,0.583811,0.696157,0.491778,0.656807,0.875525,0.8084,0.693027,0.501124,SW
0.633172,0.496783,0.56381,0.589788,0.552358,0.649456,0.83679,0.817583,0.707127,0.530704,SW
0.652135,0.52268,0.578543,0.595326,0.572573,0.671891,0.844206,0.843383,0.709947,0.459022,SW
0.639628,0.540419,0.569617,0.619345,0.583648,0.722976,0.83352,0.828769,0.684368,0.608444,SW
0.64379,0.595227,0.567805,0.61413,0.571281,0.719538,0.82935,0.866595,0.677879,0.575302,SW
0.497086,0.399435,0.421255,0.407098,0.4083,0.452769,0.69075,0.636373,0.520125,0.357254,SW
0.525316,0.427062,0.450602,0.432613,0.441168,0.528962,0.710432,0.634571,0.554525,0.404998,SW
0.52876,0.39408,0.454725,0.410014,0.497239,0.471301,0.699301,0.59469,0.509989,0.475597,SW
0.41928,0.671612,0.245759,0.8497,0.631363,0.66561,0.692659,0.68454,0.341526,0.911002,SW
0.41183,0.662961,0.247924,0.864996,0.647207,0.674222,0.695426,0.669956,0.351774,0.895732,SW
0.380855,0.644474,0.23195,0.823012,0.624543,0.640282,0.680921,0.650499,0.340812,0.869502,SW
0.531903,0.931586,0.346951,0.939694,0.817329,0.839548,0.835068,0.791189,0.459254,0.993679,SW
0.541114,0.87212,0.335298,0.866868,0.807533,0.784954,0.799571,0.833156,0.476853,1,SW
0.766715,0.813797,0.818899,0.868266,0.60305,0.748173,0.652133,0.63906,0.277143,0.558724,SW
0.785809,0.835579,0.845996,0.911874,0.650042,0.831303,0.670101,0.698603,0.295766,0.747752,SW
0.815298,0.885767,0.877223,0.955358,0.685008,0.853083,0.697751,0.703939,0.341954,0.778844,SW
0.781522,0.821204,0.827794,0.837834,0.637479,0.782016,0.668601,0.623583,0.305806,0.73704,SW
0.772737,0.829441,0.811054,0.864527,0.606554,0.76268,0.654787,0.647888,0.298224,0.754212,SW
0.778626,0.836219,0.879332,0.893947,0.648794,0.8121,0.666355,0.656523,0.304848,0.742695,SW
0.781522,0.869795,0.836429,0.918498,0.649211,0.826062,0.666043,0.66077,0.294448,0.781117,SW
0.884232,0.933548,0.918611,0.943185,0.892964,0.928259,0.84167,0.970355,0.7557,0.85028,SW
0.882265,0.918308,0.909272,0.961309,0.866455,0.938318,0.828845,0.946558,0.745366,0.889613,SW
0.619242,0.638464,0.604498,0.707414,0.486853,0.454121,0.610293,0.511553,0.420756,0.64956,SW
0.617728,0.624997,0.598555,0.70949,0.494992,0.487765,0.609668,0.534331,0.409067,0.666079,SW
0.720255,0.727873,0.705378,0.714293,0.696665,0.791342,0.790893,0.854902,0.674003,0.75715,SW
0.73609,0.72528,0.727313,0.722396,0.703262,0.792492,0.798156,0.860029,0.688461,0.767233,SW
0.682102,0.649852,0.655892,0.633765,0.626126,0.668763,0.734077,0.766788,0.615747,0.668007,SW
0.640167,0.658817,0.620121,0.606179,0.618331,0.689414,0.733443,0.827111,0.581027,0.656931,SW
0.691575,0.720475,0.67961,0.699001,0.677892,0.766378,0.81004,0.868594,0.665328,0.722188,SW
0.769743,0.759617,0.769876,0.809782,0.697336,0.799889,0.74232,0.803138,0.632832,0.84585,SW
0.777166,0.756843,0.774413,0.805998,0.711858,0.784954,0.743165,0.794812,0.641186,0.824344,SW
0.725638,0.710672,0.727313,0.763055,0.654096,0.731108,0.703086,0.73452,0.571343,0.813857,SW
0.760553,0.725713,0.760586,0.764261,0.698602,0.781426,0.73299,0.781982,0.60058,0.831412,SW
0.744496,0.718271,0.750993,0.766664,0.627354,0.693123,0.670024,0.702422,0.503767,0.791376,SW
0.766715,0.756047,0.781823,0.796658,0.672084,0.743,0.689755,0.720979,0.523055,0.809732,SW
0.22165,0.282587,0.193915,0.284935,0.251201,0.30695,0.50972,0.290604,0.332852,0.312919,SW
0.238531,0.259903,0.202534,0.256177,0.27225,0.312784,0.526333,0.259089,0.358473,0.322281,SW
0.287556,0.318835,0.278943,0.333434,0.382221,0.389729,0.589243,0.363467,0.455175,0.367056,SW
0.919078,0.922115,0.913979,0.90641,0.879273,0.856517,0.923811,0.939129,0.807648,0.802173,SW
0.861758,0.85309,0.848339,0.852128,0.794181,0.819143,0.892617,0.896023,0.758398,0.773322,SW
1,1,1,0.990499,0.97496,0.939509,0.996669,1,0.900458,0.851012,SW
0.861758,0.83333,0.843039,0.810857,0.769609,0.750735,0.885912,0.831517,0.761884,0.728103,SW
0.910341,0.870087,0.899627,0.868266,0.855436,0.876986,0.920852,0.94574,0.817126,0.796171,SW
0.233623,0.189534,0.113863,0.24099,0.136074,0.234017,0.558777,0.234927,0.45074,0.333171,SW
0.297749,0.291278,0.209478,0.342126,0.24325,0.335296,0.623375,0.396224,0.480945,0.437694,SW
0.349032,0.279643,0.262733,0.326342,0.178244,0.212228,0.541529,0.209185,0.381948,0.223962,SW
0.569384,0.493515,0.516611,0.557886,0.510943,0.49392,0.706049,0.500285,0.558976,0.47444,SW
0.578117,0.501631,0.522748,0.526512,0.519322,0.484026,0.719624,0.563509,0.571274,0.467414,SW
0.333087,0.181879,0.268572,0.215901,0.08425,0.090848,0.508169,0.155088,0.380941,0.175673,SW
0.317856,0.193302,0.238889,0.232046,0.084857,0.110638,0.476843,0.116646,0.316005,0.163899,SW
0.362137,0.266091,0.283677,0.28095,0.107053,0.132542,0.493568,0.148936,0.347882,0.195309,SW
0.381373,0.285507,0.328885,0.357314,0.18794,0.173016,0.554836,0.234927,0.44241,0.236199,SW
0.265021,0.129999,0.193374,0.218247,0.013794,0.036554,0.46271,0.081469,0.328574,0.074873,SW
0.266816,0.13663,0.185591,0.165845,0.025428,0.016664,0.462626,0.058748,0.32182,0.093984,SW
0.406352,0.385345,0.281841,0.45531,0.330086,0.32232,0.579706,0.396224,0.406165,0.367056,SW
0.395477,0.375261,0.260761,0.470594,0.305526,0.337115,0.574311,0.345066,0.390756,0.348856,SW
0.616125,0.531658,0.556849,0.564867,0.542792,0.515315,0.730101,0.560251,0.574051,0.493564,SW
0.635474,0.586435,0.589607,0.593488,0.582777,0.537806,0.751304,0.613233,0.605193,0.528748,SW
0.641169,0.601989,0.590197,0.631257,0.614831,0.582223,0.752403,0.634571,0.610421,0.543142,SW
0.636245,0.611605,0.59129,0.632095,0.587215,0.60959,0.746951,0.64963,0.586394,0.517774,SW
0.449022,0.351796,0.388261,0.414349,0.286058,0.292994,0.596177,0.354374,0.443346,0.314813,SW
0.454336,0.370687,0.396727,0.469342,0.291575,0.299035,0.603477,0.335532,0.44727,0.281021,SW
0.501654,0.460009,0.432983,0.459185,0.445307,0.388137,0.652338,0.438533,0.44552,0.384296,SW
0.519181,0.486889,0.451863,0.521037,0.490342,0.437573,0.66405,0.43555,0.465907,0.397754,SW
0.712904,0.656728,0.683438,0.68384,0.608112,0.618605,0.78877,0.712181,0.672175,0.573596,SW
0.73317,0.682998,0.704732,0.727049,0.638163,0.686422,0.799924,0.715871,0.682795,0.594306,SW
0.590966,0.515026,0.567563,0.568803,0.405543,0.396036,0.627641,0.441493,0.476947,0.466228,SW
0.588303,0.545434,0.570579,0.601692,0.405397,0.399152,0.624289,0.458802,0.477694,0.488054,SW
0.586542,0.52268,0.557948,0.553841,0.433727,0.4319,0.644345,0.450243,0.496632,0.518787,SW
0.587975,0.519638,0.553211,0.56684,0.3865,0.40378,0.622963,0.444432,0.453871,0.455358,SW
0.560455,0.553874,0.531959,0.582283,0.444909,0.460817,0.675829,0.471303,0.524269,0.419021,SW
0.561345,0.555262,0.534277,0.556879,0.440497,0.430468,0.674739,0.49259,0.518649,0.419021,SW
0.544255,0.555262,0.513239,0.583229,0.419439,0.443166,0.666899,0.483418,0.504369,0.431147,SW
0.637707,0.458205,0.472424,0.479248,0.352187,0.297032,0.597038,0.424929,0.441262,0.345435,SW
0.520143,0.462699,0.459009,0.516602,0.383601,0.351377,0.602093,0.333597,0.445108,0.360554,SW
0.624953,0.592737,0.595648,0.62364,0.780098,0.470005,0.676466,0.499013,0.52828,0.494654,SW
0.61834,0.578727,0.602997,0.637909,0.50842,0.45547,0.683048,0.535494,0.529553,0.482451,SW
0.530687,0.450897,0.489436,0.510989,0.313867,0.26786,0.587939,0.386171,0.416154,0.393329,SW
0.625833,0.598931,0.587007,0.629577,0.518199,0.514157,0.693853,0.544678,0.548518,0.507468,SW
0.636643,0.584523,0.605832,0.67265,0.538198,0.482772,0.715133,0.571009,0.561215,0.489164,SW
0.515063,0.433895,0.4699,0.468086,0.326611,0.312784,0.59023,0.427993,0.402175,0.362192,SW
0.505699,0.438698,0.465772,0.487721,0.318513,0.297032,0.578896,0.315743,0.412745,0.400671,SW
0.511118,0.411974,0.46293,0.473086,0.323284,0.254668,0.594346,0.299163,0.434927,0.295361,SW
0.513216,0.430982,0.465386,0.466827,0.31691,0.280626,0.584888,0.392902,0.402411,0.322281,SW
0.618313,0.588337,0.598964,0.636257,0.47942,0.467402,0.671935,0.514013,0.524753,0.523806,SW
0.51678,0.43486,0.476337,0.485318,0.323987,0.292994,0.59209,0.346945,0.43514,0.417646,SW
0.515415,0.441549,0.481094,0.494844,0.312788,0.282714,0.585944,0.35253,0.424633,0.370259,SW
0.63751,0.515798,0.605059,0.569781,0.487336,0.477715,0.696088,0.577325,0.595252,0.530704,SW
0.642264,0.511137,0.60415,0.56189,0.475221,0.495139,0.698234,0.554759,0.579739,0.492469,SW
0.619427,0.52268,0.580203,0.570757,0.489863,0.508311,0.727026,0.619851,0.613676,0.497905,SW
0.617808,0.542577,0.578835,0.56189,0.49924,0.553872,0.73293,0.596684,0.61593,0.47444,SW
0.522704,0.518107,0.432312,0.554856,0.377745,0.460817,0.677848,0.541259,0.527961,0.34715,SW
0.54429,0.566848,0.454947,0.573669,0.416184,0.47644,0.705513,0.554759,0.562651,0.396286,SW
0.633699,0.650386,0.588055,0.65328,0.532142,0.662432,0.78192,0.687709,0.641354,0.515739,SW
0.631077,0.665015,0.567047,0.680886,0.504609,0.617712,0.773491,0.680543,0.627081,0.475597,SW
0.546178,0.562801,0.467566,0.559893,0.406996,0.467402,0.682646,0.571009,0.550161,0.375005,SW
0.505496,0.436784,0.43135,0.486521,0.325564,0.381702,0.648954,0.448798,0.527642,0.343711,SW
0.614189,0.631793,0.550942,0.671893,0.477449,0.579281,0.747094,0.643499,0.601152,0.459022,SW
0.737792,0.751231,0.768348,0.78424,0.863408,0.765764,0.985251,0.811869,1,0.760546,W
0.788629,0.853395,0.815003,0.863586,0.938811,0.839038,1,0.859009,1,0.77146,W
0.52259,0.429028,0.499197,0.425686,0.623749,0.473879,0.707585,0.530821,0.614896,0.496825,W
0.598056,0.557333,0.607001,0.54459,0.671293,0.592827,0.851516,0.628198,0.808448,0.57102,W
0.662871,0.653042,0.664544,0.652486,0.823962,0.684163,0.84167,0.717337,0.769195,0.644092,W
0.666754,0.660377,0.659064,0.678657,0.756524,0.692384,0.83783,0.70545,0.777556,0.669285,W
0.513374,0.488557,0.427031,0.529762,0.654508,0.585143,0.746577,0.63003,0.624728,0.599877,W
0.468181,0.480991,0.352609,0.518825,0.659498,0.588042,0.740033,0.622653,0.646195,0.613781,W
0.423067,0.401555,0.333019,0.443453,0.632835,0.535613,0.754167,0.542402,0.628368,0.63216,W
0.305425,0.22038,0.18179,0.24099,0.445307,0.320431,0.588096,0.323779,0.442202,0.353921,W
0.331454,0.240678,0.199901,0.272861,0.483335,0.361746,0.593784,0.339373,0.465616,0.350553,W
0.357227,0.239029,0.237402,0.251896,0.505536,0.370184,0.619551,0.363467,0.502733,0.393329,W
0.338686,0.286958,0.214152,0.37513,0.293837,0.263511,0.512516,0.294907,0.275571,0.283109,W
0.325142,0.312139,0.222892,0.370349,0.287396,0.270016,0.513972,0.301274,0.289287,0.276806,W
0.336323,0.276675,0.213547,0.348947,0.293084,0.214709,0.493866,0.217086,0.288278,0.261608,W
0.540545,0.580669,0.428834,0.620208,0.586542,0.501181,0.68173,0.551427,0.453871,0.616792,W
0.546944,0.592737,0.433653,0.663469,0.609847,0.527843,0.692799,0.620787,0.484254,0.624932,W
0.406293,0.407842,0.297361,0.484112,0.385129,0.308904,0.564553,0.397875,0.362507,0.360554,W
0.412981,0.396232,0.296448,0.482901,0.391189,0.36851,0.579652,0.414013,0.394527,0.391841,W
0.408814,0.451818,0.29933,0.505297,0.39344,0.381702,0.558017,0.418729,0.370556,0.452892,W
0.405881,0.401555,0.295914,0.461749,0.380683,0.342524,0.567789,0.392902,0.386072,0.381228,W
0.434062,0.483531,0.27862,0.536184,0.338485,0.347859,0.564895,0.346945,0.386196,0.257133,W
0.403094,0.449973,0.249179,0.43807,0.247662,0.252426,0.530653,0.286253,0.354251,0.208645,W
0.574037,0.703834,0.441297,0.706024,0.599705,0.561153,0.71838,0.634571,0.50256,0.518787,W
0.584015,0.715161,0.458614,0.737485,0.597648,0.563208,0.718859,0.599655,0.498562,0.575302,W
0.565978,0.52268,0.553529,0.519932,0.609756,0.582223,0.857253,0.625435,0.805166,0.538414,W
0.56948,0.541859,0.559697,0.512118,0.622335,0.581244,0.793384,0.580446,0.756602,0.540314,W
0.277817,0.191423,0.224745,0.203958,0.219157,0.194411,0.491694,0.181641,0.368333,0.184234,W
0.29139,0.213354,0.246392,0.258301,0.248706,0.178474,0.518497,0.201122,0.361838,0.195309,W
0.518409,0.497596,0.493559,0.554856,0.514699,0.466094,0.737756,0.551427,0.69531,0.476749,W
0.512347,0.486053,0.505255,0.562885,0.368494,0.396036,0.560929,0.420288,0.382451,0.400671,W
0.365247,0.301163,0.351852,0.39067,0.198362,0.199584,0.467121,0.178777,0.227881,0.216393,W
0.658793,0.608627,0.662157,0.741967,0.578489,0.535613,0.702476,0.599655,0.589835,0.462645,W
0.704345,0.686876,0.709149,0.766664,0.724092,0.671112,0.807655,0.748964,0.717023,0.583701,W
0.647769,0.623278,0.644165,0.658015,0.589321,0.550711,0.724477,0.59369,0.614896,0.505367,W
0.565687,0.52869,0.561652,0.590716,0.50205,0.466094,0.693151,0.511553,0.598151,0.419021,W
0.639186,0.635144,0.63251,0.689683,0.610029,0.585143,0.740944,0.609401,0.660611,0.500054,W
0.703594,0.712025,0.706306,0.807083,0.730636,0.699713,0.827239,0.66077,0.728679,0.597501,W
0.68648,0.68591,0.683724,0.747029,0.71063,0.658422,0.80154,0.700135,0.706304,0.551484,W
0.618605,0.573495,0.613037,0.650892,0.58015,0.584172,0.71838,0.56888,0.627199,0.520804,W
0.682123,0.656203,0.67961,0.737485,0.696889,0.639437,0.787246,0.703939,0.685347,0.577844,W
0.725638,0.710672,0.73255,0.803274,0.760414,0.736438,0.82707,0.744208,0.742228,0.614536,W
0.526069,0.48014,0.508163,0.543548,0.496058,0.490239,0.68151,0.464407,0.555259,0.445382,W
0.680739,0.632913,0.675438,0.708799,0.696739,0.637742,0.783099,0.695521,0.680867,0.556929,W
0.534281,0.474131,0.514912,0.528681,0.4562,0.409868,0.675153,0.414013,0.552092,0.417646,W
0.573378,0.558708,0.560101,0.592566,0.487577,0.482772,0.673568,0.491293,0.473656,0.432467,W
0.595057,0.536795,0.574425,0.625346,0.531815,0.454121,0.685628,0.48606,0.491219,0.424466,W
0.574288,0.542577,0.555652,0.578478,0.512882,0.402243,0.663343,0.450243,0.52612,0.438988,W
0.583258,0.548269,0.569527,0.629577,0.515605,0.452769,0.674059,0.429516,0.475916,0.412085,W
0.496499,0.459108,0.500837,0.521037,0.35742,0.360036,0.578246,0.417163,0.347182,0.309098,W
0.558134,0.515026,0.609693,0.637084,0.533338,0.505949,0.669448,0.518889,0.470998,0.460234,W
0.43796,0.388646,0.421952,0.465563,0.283947,0.247903,0.508311,0.339373,0.230109,0.311014,W
0.249254,0.140984,0.181452,0.22058,0.179712,0.14157,0.496464,0.126614,0.354525,0.151685,W
0.218809,0.10698,0.158619,0.102476,0.126797,0.084025,0.452007,0.050873,0.271516,0.138997,W
0.224694,0.111702,0.164167,0.18662,0.123753,0.080569,0.484527,0.077772,0.319537,0.148559,W
0.501778,0.48014,0.472089,0.548728,0.5509,0.492696,0.729734,0.581481,0.683189,0.536504,W
0.345134,0.328007,0.303674,0.368743,0.422671,0.333468,0.594958,0.420288,0.455875,0.393329,W
0.527642,0.529434,0.514368,1,0.557731,0.490239,0.73004,0.554759,0.698798,0.497905,W
0.535335,0.548975,0.523911,0.563878,0.582388,0.51066,0.71155,0.576279,0.649983,0.500054,W
0.323781,0.223842,0.261792,0.326342,0.236868,0.207219,0.511541,0.192891,0.35766,0.211248,W
0.31654,0.232358,0.248014,0.274898,0.207854,0.161868,0.477479,0.106419,0.322275,0.135746,W
0.283199,0.166069,0.215861,0.232046,0.173315,0.104151,0.497864,0.106419,0.316314,0.074873,W
0.331064,0.185727,0.272401,0.264606,0.254918,0.159031,0.563866,0.148936,0.448294,0.151685,W
0.580516,0.550381,0.559323,0.600789,0.482237,0.436162,0.662555,0.478079,0.552535,0.413484,W
0.398647,0.510354,0.378796,0.537244,0.517749,0.486523,0.613019,0.471303,0.43811,0.475597,T
0.402318,0.588969,0.388373,0.634597,0.536584,0.552821,0.616563,0.526092,0.447577,0.529728,T
0.19204,0.26301,0.170316,0.227499,0.232778,0.153296,0.427873,0.190108,0.225433,0.278921,T
0.425873,0.569522,0.413116,0.529762,0.558552,0.472592,0.597088,0.46718,0.402647,0.497905,T
0.343425,0.448118,0.300985,0.432613,0.447693,0.414374,0.543392,0.361665,0.37328,0.413484,T
0.357581,0.472395,0.330247,0.490109,0.473231,0.445934,0.58003,0.394567,0.391855,0.436395,T
0.307736,0.418084,0.269659,0.429856,0.385434,0.378445,0.51904,0.386171,0.332412,0.403562,T
0.305253,0.423099,0.279751,0.436712,0.376347,0.342524,0.507745,0.325762,0.320909,0.400671,T
0.299513,0.393,0.266217,0.36713,0.349547,0.335296,0.483676,0.303374,0.28233,0.367056,T
0.314137,0.350582,0.198841,0.348947,0.512199,0.412878,0.601646,0.447348,0.44428,0.428491,T
0.316787,0.371836,0.212839,0.345551,0.527543,0.421771,0.61154,0.417163,0.501782,0.396286,T
0.304477,0.388646,0.190548,0.353988,0.511286,0.438979,0.602934,0.43405,0.433966,0.420391,T
0.314885,0.404712,0.207009,0.38761,0.526552,0.502378,0.61534,0.487375,0.451854,0.433782,T
0.319003,0.349364,0.205871,0.36713,0.502982,0.408355,0.578787,0.397875,0.416832,0.413484,T
0.335018,0.363717,0.189892,0.343842,0.540875,0.470005,0.604855,0.458802,0.450333,0.451652,T
0.316292,0.390829,0.210194,0.360612,0.514359,0.438979,0.599652,0.415591,0.443969,0.432467,T
0.597741,0.774696,0.578163,0.814595,0.849636,0.824476,0.812515,0.798402,0.701924,0.702043,T
0.461277,0.521922,0.384613,0.583229,0.741958,0.720228,0.728722,0.66913,0.593695,0.608444,T
0.319574,0.382015,0.212535,0.345551,0.524673,0.424691,0.616704,0.415591,0.460044,0.433782,T
0.332,0.396232,0.22861,0.389143,0.535937,0.452769,0.603822,0.448798,0.456873,0.456584,T
0.663387,0.852784,0.589916,0.628734,0.968239,0.951217,0.928188,0.949004,0.91429,0.813447,T
0.681285,0.906378,0.638002,0.902583,1,1,0.936732,0.962582,0.900833,0.822752,T
0.371023,0.462699,0.286528,0.439422,0.587694,0.515315,0.651804,0.533165,0.507702,0.479042,T
0.470042,0.518107,0.467566,0.565855,0.690269,0.649456,0.709575,0.62451,0.659182,0.570157,R
0.492311,0.518873,0.470111,0.556879,0.688294,0.632614,0.700979,0.625435,0.65796,0.576999,R
0.455709,0.488557,0.441902,0.482901,0.609482,0.518771,0.650981,0.506585,0.628193,0.479042,R
0.470413,0.485214,0.459316,0.508722,0.671926,0.597555,0.692059,0.571009,0.6527,0.5248,R
0.447815,0.496783,0.435939,0.532985,0.60268,0.539986,0.647538,0.536654,0.625672,0.483579,R
0.645091,0.720035,0.651481,0.770241,0.838231,0.850611,0.799006,0.830969,0.766966,0.776554,R
0.660273,0.761193,0.668033,0.783092,0.872936,0.894678,0.81459,0.868095,0.774164,0.787844,R
0.623784,0.660377,0.626815,0.701825,0.82702,0.792492,0.778555,0.768077,0.749075,0.726501,R
0.639014,0.684457,0.652255,0.721057,0.846203,0.783782,0.801423,0.784458,0.772081,0.729167,R
0.562724,0.5896,0.560847,0.631257,0.749765,0.704763,0.744993,0.717337,0.720547,0.668647,R
0.568361,0.591485,0.562671,0.596242,0.756394,0.676538,0.741999,0.68454,0.73068,0.631444,R
0.588422,0.629541,0.58831,0.668086,0.789376,0.758321,0.762197,0.747611,0.7354,0.679956,R
0.586692,0.620394,0.582546,0.676415,0.777624,0.731108,0.757662,0.740085,0.728166,0.669285,R
0.614755,0.666548,0.629406,0.693292,0.800879,0.757066,0.784821,0.746933,0.760996,0.713387,R
0.669685,0.716052,0.692816,0.749537,0.883674,0.832862,0.809066,0.813592,0.761575,0.76199,R
0.687629,0.771271,0.705378,0.793309,0.907899,0.882057,0.82836,0.867096,0.621464,0.810561,R
0.658084,0.651982,0.655892,0.707414,0.807823,0.772466,0.816141,0.766788,0.81942,0.724351,R
0.635773,0.735546,0.651549,0.752028,0.782007,0.791342,0.768301,0.766788,0.6995,0.713944,R
0.666178,0.72528,0.653638,0.747658,0.884937,0.873725,0.807838,0.849185,0.765027,0.770057,R
0.575695,0.61338,0.574455,0.632095,0.654343,0.603155,0.670446,0.620787,0.506339,0.690888,R
0.568008,0.600769,0.567411,0.594408,0.644859,0.597555,0.660495,0.606503,0.497598,0.700307,R
0.529947,0.614558,0.527546,0.658799,0.735105,0.698258,0.718572,0.658227,0.614714,0.64271,R
0.566592,0.67611,0.569075,0.733603,0.78409,0.757066,0.745079,0.736616,0.639442,0.720556,R
0.406999,0.430006,0.380519,0.463024,0.520666,0.462143,0.601149,0.442965,0.510242,0.406428,R
0.384203,0.420099,0.348104,0.446118,0.513337,0.443166,0.574366,0.423388,0.48771,0.396286,R
0.389335,0.406802,0.356487,0.476795,0.485885,0.45547,0.580137,0.442965,0.477508,0.400671,R
0.716605,0.802748,0.762155,0.832784,0.817725,0.839038,0.828254,0.868594,0.610298,0.876006,R
0.711034,0.774696,0.518086,0.80053,0.822621,0.800452,0.827197,0.823775,0.609246,0.825533,R
0.716605,0.800638,0.762155,0.829212,0.827629,0.837503,0.830482,0.828217,0.620329,0.849178,R
0.469717,0.439651,0.473178,0.452705,0.528203,0.509487,0.660415,0.528464,0.576599,0.469773,R
0.437017,0.369535,0.440037,0.398221,0.489382,0.441776,0.643795,0.453117,0.557305,0.449159,R
0.664216,0.68832,0.669859,0.725061,0.808806,0.760195,0.805203,0.774458,0.66156,0.811388,R
0.660409,0.666548,0.667473,0.686772,0.808864,0.72774,0.805847,0.722427,0.653349,0.825137,R
0.659089,0.681533,0.664304,0.733603,0.796979,0.7443,0.799712,0.756323,0.662926,0.76676,R
0.665243,0.71022,0.672035,0.737485,0.813574,0.769434,0.807221,0.764847,0.65577,0.767705,R
0.681033,0.708861,0.692717,0.758802,0.841566,0.782016,0.825219,0.796611,0.679874,0.813857,R
0.41731,0.329299,0.402788,0.347252,0.467964,0.386538,0.6011,0.381047,0.47176,0.436395,R
0.404284,0.291278,0.363304,0.306171,0.471608,0.388137,0.589139,0.377593,0.431604,0.460234,R
0.488488,0.399435,0.455391,0.382975,0.497946,0.441776,0.645904,0.469933,0.560422,0.425813,R
0.601192,0.596466,0.588253,0.588857,0.684163,0.664024,0.758981,0.678125,0.699547,0.619775,R
0.589904,0.598931,0.58879,0.596242,0.666837,0.636892,0.75453,0.639952,0.694361,0.599877,R
0.618366,0.623278,0.610297,0.621928,0.706268,0.660833,0.774785,0.713661,0.71049,0.658254,R
0.607991,0.585799,0.609404,0.57752,0.707071,0.636892,0.765908,0.652229,0.723425,0.611504,R
0.599315,0.56076,0.584155,0.547697,0.697709,0.634331,0.771406,0.653092,0.711708,0.618287,R
0.616767,0.609224,0.60716,0.583229,0.714447,0.645312,0.780357,0.682146,0.711393,0.605354,R
0.336629,0.276675,0.311887,0.286912,0.514019,0.397597,0.541405,0.407637,0.304688,0.510594,R
0.323138,0.270665,0.305823,0.236543,0.367383,0.338926,0.518701,0.35621,0.288783,0.482451,R
0.342603,0.270665,0.325936,0.282947,0.383754,0.376807,0.5424,0.409241,0.319995,0.507468,R
0.290118,0.308062,0.198096,0.322749,0.373849,0.308904,0.518089,0.288434,0.378026,0.293351,P
0.30205,0.278162,0.179076,0.251896,0.439017,0.32232,0.585892,0.303374,0.469948,0.341978,P
0.298985,0.253607,0.170316,0.251896,0.428786,0.337115,0.589711,0.327736,0.469182,0.350553,P
0.389712,0.350582,0.281841,0.429856,0.64796,0.558049,0.714193,0.571009,0.663031,0.461442,P
0.408347,0.391916,0.297437,0.506442,0.666036,0.587078,0.720671,0.572068,0.676576,0.456584,P
0.398647,0.411974,0.294767,0.460469,0.650042,0.601297,0.719273,0.612279,0.662034,0.498982,P
0.412866,0.39837,0.305454,0.501843,0.667796,0.585143,0.727829,0.604559,0.675771,0.504311,P
0.408171,0.510354,0.41178,0.432613,0.380837,0.351377,0.504468,0.319781,0.299528,0.387335,P
0.328632,0.326711,0.326968,0.320941,0.203943,0.175754,0.414223,0.161145,0.199204,0.218936,P
0.311629,0.305318,0.306928,0.276926,0.236868,0.212228,0.468109,0.244771,0.264704,0.272535,P
0,0.336954,0.013067,0.22058,0.139034,0.107408,0.353432,0.142686,0,0.203376,P
0.40166,0.477577,0.404693,0.496019,0.515605,0.471301,0.599001,0.463013,0.279747,0.554218,P
0.167378,0.164043,0.119062,0.155041,0.202786,0.104151,0.414726,0.07404,0.123364,0.281021,P
0.168674,0.225562,0.118504,0.138271,0.1877,0.132542,0.41108,0.116646,0.119115,0.283109,P
0.274265,0.309426,0.237589,0.302392,0.204866,0.194411,0.452967,0.234927,0.15163,0.259378,P
0.269388,0.308062,0.240829,0.251896,0.20209,0.191799,0.415229,0.167111,0.153172,0.184234,P
0.267907,0.317506,0.237029,0.28095,0.208997,0.212228,0.418223,0.172987,0.170397,0.203376,P
0.428161,0.417073,0.43082,0.44077,0.349382,0.303012,0.506894,0.288434,0.093297,0.367056,P
0.426419,0.435824,0.423589,0.464296,0.345891,0.347859,0.497644,0.247194,0.130048,0.362192,P
0.417367,0.452737,0.408883,0.424286,0.455422,0.418829,0.588044,0.414013,0.454775,0.371849,P
0.35878,0.379777,0.352609,0.389143,0.368336,0.351377,0.541467,0.305463,0.398493,0.276806,P
0.373298,0.390829,0.357479,0.39067,0.384672,0.396036,0.544381,0.365261,0.407677,0.303282,P
0.399917,0.445317,0.376773,0.502997,0.526883,0.567288,0.589243,0.560251,0.484528,0.47444,P
0.382341,0.409914,0.368659,0.418638,0.419862,0.384933,0.552575,0.40441,0.433431,0.370259,P
0.384267,0.414022,0.365542,0.414349,0.433317,0.394469,0.56358,0.384471,0.441471,0.353921,P
0.307907,0.330586,0.283039,0.317299,0.276576,0.32232,0.471297,0.259089,0.311024,0.276806,P
0.330673,0.382015,0.316621,0.38761,0.313148,0.358319,0.500133,0.35253,0.371206,0.381228,P
0.328474,0.356611,0.322189,0.378287,0.291764,0.342524,0.488135,0.34128,0.335915,0.324121,P
0.331298,0.349364,0.311814,0.360612,0.321523,0.299035,0.50732,0.313708,0.355209,0.303282,P
0.351792,0.372981,0.349825,0.410014,0.344888,0.338926,0.52174,0.333597,0.382827,0.358909,P
0.283572,0.306692,0.256864,0.348947,0.21938,0.299035,0.442217,0.249602,0.282844,0.274678,P
0.301265,0.312139,0.270409,0.333434,0.268679,0.310849,0.46852,0.251995,0.341669,0.252595,P
0.29508,0.298366,0.268069,0.331673,0.260231,0.3242,0.465465,0.294907,0.329316,0.272535,P
0.275711,0.309426,0.241289,0.319124,0.283947,0.327933,0.470483,0.277405,0.297898,0.297359,P
0.289023,0.32016,0.249537,0.309914,0.292519,0.3242,0.481574,0.286253,0.317084,0.309098,P
0.276958,0.306692,0.246933,0.28888,0.287014,0.329787,0.479456,0.309607,0.316468,0.327771,P
0.189528,0.151647,0.146058,0.160479,0.148582,0.207219,0.397909,0.155088,0.21524,0.206021,P
0.383883,0.431956,0.408519,0.444788,0.497475,0.462143,0.645357,0.463013,0.51142,0.436395,P
0.293287,0.272177,0.258516,0.282947,0.417319,0.338926,0.593118,0.329699,0.503939,0.324121,SO
0.299249,0.338214,0.270742,0.308047,0.421549,0.392895,0.601795,0.384471,0.522244,0.307171,SO
0.279339,0.276675,0.245849,0.315465,0.401301,0.363448,0.587048,0.367047,0.509482,0.325951,SO
0.284597,0.282587,0.252472,0.282947,0.396125,0.351377,0.587939,0.337458,0.492202,0.336722,SO
0.348008,0.387549,0.310655,0.378287,0.503564,0.443166,0.604757,0.43555,0.547168,0.423113,SO
0.353017,0.405758,0.317119,0.429856,0.501816,0.481514,0.640041,0.472667,0.561933,0.399216,SO
0.381243,0.435824,0.329839,0.429856,0.527213,0.482772,0.652748,0.48606,0.576118,0.440277,SO
0.357722,0.412999,0.324554,0.427081,0.510485,0.480251,0.643456,0.495172,0.573844,0.424466,SO
0.364352,0.440601,0.333019,0.444788,0.532033,0.525594,0.653932,0.480758,0.582579,0.444113,SO
0.202617,0.204376,0.172879,0.213541,0.174799,0.243328,0.414223,0.172987,0.294283,0.236199,SO
0.207504,0.198881,0.173805,0.22058,0.177508,0.241021,0.421479,0.229912,0.28811,0.211248,SO
0.215697,0.222115,0.186146,0.232046,0.178979,0.22206,0.412605,0.219684,0.282673,0.195309,SO
0.211938,0.204376,0.188355,0.229779,0.171576,0.212228,0.409546,0.184483,0.283529,0.238592,SO
0.137468,0.089953,0.09468,0.141115,0.120128,0.104151,0.413516,0.116646,0.277666,0.178552,SO
0.128769,0.092435,0.101707,0.111727,0.106764,0.113843,0.411284,0.106419,0.276096,0.245669,SO
0.147453,0.097348,0.10857,0.114764,0.110502,0.087451,0.430634,0.126614,0.305168,0.206021,SO
0.12012,0.089953,0.089797,0.123741,0.096244,0.094216,0.41392,0.133122,0.267949,0.17277,SO
0.210222,0.191423,0.166784,0.249738,0.247244,0.256897,0.491769,0.232427,0.363574,0.270379,SO
0.215817,0.187635,0.176911,0.2229,0.241981,0.231654,0.493418,0.192891,0.360227,0.348856,SO
0.217257,0.159958,0.163689,0.206375,0.25615,0.234017,0.498011,0.195653,0.363973,0.247994,SO
0.25242,0.17406,0.158863,0.22058,0.308991,0.290959,0.518565,0.224831,0.403,0.263823,SO
0.242044,0.218636,0.179984,0.245388,0.304426,0.256897,0.519718,0.30754,0.410681,0.263823,SO
0.193483,0.187635,0.129998,0.173762,0.261853,0.263511,0.503463,0.229912,0.391611,0.213831,SO
0.205635,0.24558,0.187584,0.251896,0.206477,0.224481,0.454875,0.195653,0.315541,0.189818,SO
0.20135,0.232358,0.183249,0.247569,0.204174,0.150397,0.458054,0.136336,0.30803,0.16984,SO
0.202238,0.225562,0.183249,0.238772,0.196015,0.159031,0.444833,0.184483,0.301957,0.16984,SO
0.252,0.264554,0.202429,0.208778,0.285483,0.254668,0.494462,0.192891,0.370164,0.295361,SO
0.235977,0.270665,0.21395,0.2229,0.287014,0.30695,0.506539,0.224831,0.389653,0.226446,SO
0.243459,0.2472,0.207525,0.266685,0.292519,0.274295,0.513764,0.244771,0.396095,0.353921,SO
0.237645,0.266091,0.214957,0.266685,0.282019,0.278527,0.505755,0.270636,0.380183,0.252595,SO
0.162425,0.12551,0.135318,0.129616,0.143038,0.077082,0.417826,0.092356,0.265066,0.129146,SO
0.170678,0.155827,0.14106,0.181526,0.151719,0.132542,0.417428,0.07404,0.269737,0.108506,SO
0.174219,0.172079,0.143505,0.211166,0.164551,0.117021,0.436535,0.113266,0.284723,0.125795,SO
0.277435,0.286958,0.237216,0.292787,0.310079,0.354863,0.561912,0.345066,0.483063,0.289293,SO
0.263617,0.267622,0.226007,0.286912,0.28987,0.329787,0.539591,0.301274,0.471189,0.259378,SO
0.266219,0.269147,0.226973,0.272861,0.292141,0.318533,0.551917,0.28406,0.478347,0.285183,SO
0.26929,0.285507,0.225037,0.298578,0.3079,0.347859,0.562603,0.277405,0.473088,0.32043,SO
0.175061,0.140984,0.156665,0.149528,0.099486,0.110638,0.423238,0.058748,0.304368,0.086473,SO
0.179788,0.143142,0.167376,0.165845,0.111931,0.126406,0.436905,0.133122,0.333438,0.115532,SO
0.191249,0.176031,0.184812,0.17114,0.123753,0.129486,0.446266,0.109857,0.332705,0.151685,SO
0.212304,0.215123,0.179076,0.225206,0.247453,0.243328,0.48445,0.195653,0.351912,0.189818,SO
0.199181,0.195171,0.14972,0.189143,0.243461,0.175754,0.494015,0.201122,0.380436,0.236199,SO
0.196865,0.17994,0.149845,0.225206,0.249539,0.234017,0.487371,0.277405,0.372634,0.259378,SO
0.218333,0.206189,0.170199,0.247569,0.27027,0.236365,0.501223,0.266058,0.392951,0.272535,SO
0.260988,0.255191,0.227456,0.308047,0.323811,0.295018,0.534136,0.266058,0.422978,0.322281,SO
0.261901,0.26146,0.223966,0.313623,0.321876,0.284792,0.535861,0.279636,0.422645,0.341978,SO
0.254198,0.235709,0.212839,0.308047,0.330605,0.284792,0.531367,0.292761,0.412173,0.362192,SO
0.244649,0.185727,0.191965,0.298578,0.32117,0.274295,0.523613,0.325762,0.402529,0.309098,SO
0.299073,0.291278,0.265963,0.296657,0.401007,0.340729,0.577431,0.358037,0.481129,0.362192,SO
0.291209,0.276675,0.220731,0.358966,0.390436,0.327933,0.569196,0.363467,0.449009,0.341978,SO
0.29766,0.28405,0.265032,0.328127,0.38726,0.318533,0.579652,0.346945,0.493093,0.341978,SO
0.306711,0.335689,0.286686,0.415784,0.382682,0.360036,0.577322,0.382763,0.47375,0.357254,SO
0.314636,0.313489,0.294153,0.389143,0.387563,0.342524,0.583775,0.325762,0.485896,0.314813,SO
0.31654,0.351796,0.299707,0.404161,0.398795,0.373509,0.590023,0.399519,0.493271,0.367056,SO
0.237201,0.237373,0.211112,0.270813,0.293084,0.250171,0.518633,0.292761,0.402411,0.252595,SO
0.217138,0.189534,0.179417,0.191651,0.273631,0.229277,0.515214,0.203828,0.396816,0.203376,SO
0.212669,0.207994,0.173921,0.208778,0.263468,0.245622,0.506681,0.181641,0.387806,0.206021,SO
0.26582,0.258339,0.238611,0.258301,0.328352,0.346089,0.573262,0.343177,0.586992,0.353921,SO
0.289388,0.269147,0.261877,0.286912,0.370549,0.320431,0.582764,0.319781,0.494602,0.309098,SO
0.256377,0.240678,0.203686,0.245388,0.295526,0.250171,0.540531,0.234927,0.437899,0.231359,SO
0.259562,0.234037,0.21223,0.229779,0.371809,0.331631,0.566147,0.335532,0.462891,0.329581,SO
0.279718,0.26301,0.228418,0.249738,0.383448,0.337115,0.579598,0.34128,0.479927,0.324121,SO
0.170535,0.127762,0.166073,0.135406,0.136074,0.073565,0.446355,0.077772,0.335479,0.054575,SO
0.165059,0.143142,0.143762,0.157769,0.18698,0.18917,0.500424,0.139524,0.405347,0.129146,SO
0.197123,0.198881,0.181339,0.191651,0.242193,0.20469,0.526729,0.206515,0.440425,0.200709,SO
0.180613,0.181879,0.169613,0.181526,0.204174,0.194411,0.504038,0.161145,0.43225,0.148559,SO
0.150392,0.172079,0.160803,0.123741,0.191758,0.100867,0.506681,0.158128,0.375598,0.151685,SO
0.206509,0.17994,0.195852,0.213541,0.243461,0.199584,0.511052,0.167111,0.417846,0.160888,SO
0.189793,0.216884,0.17771,0.238772,0.238366,0.219625,0.513972,0.172987,0.436416,0.163899,SO
0.190059,0.183808,0.175304,0.236543,0.238152,0.226886,0.505184,0.192891,0.418632,0.12241,SO
0.188196,0.181879,0.1709,0.203958,0.21871,0.183858,0.502309,0.187306,0.407561,0.16984,SO
0.298632,0.348142,0.286449,0.381419,0.371337,0.303012,0.573649,0.323779,0.47195,0.291328,SO
0.292475,0.341969,0.287708,0.347252,0.379294,0.349622,0.57093,0.323779,0.479556,0.295361,SO
0.144324,0.104596,0.095435,0.045607,0.126521,0.097555,0.4393,0.085131,0.32544,0.108506,SO
0.080219,0.009444,0.045911,0.023449,0.017706,0,0.372742,0.034635,0.231317,0.041762,SO
0.116301,0.074696,0.078026,0.049184,0.065616,0.048025,0.406969,0.017698,0.288783,0.086473,SO
0.083601,0.039263,0.037394,0,0.029928,0.066434,0.380294,0.0045,0.238671,0.097675,SO
0.081617,0,0.046624,0.083309,0.023336,0.073565,0.400044,0.022001,0.261608,0.093984,SO
0.08733,0.039263,0.06409,0.030971,0.033358,0.087451,0.405932,0.046876,0.272402,0.216393,SO
0.103221,0.097348,0.084676,0.045607,0.075653,0.032655,0.409854,0.05483,0.276445,0.062846,SO
0.105234,0.072089,0.091485,0.045607,0.077509,0.016664,0.412504,0.066468,0.273814,0.032932,SO
0.109931,0.097348,0.096339,0.056244,0.063708,0.020723,0.406658,0.017698,0.272402,0.014522,SO
0.105051,0.06682,0.107413,0.083309,0.082116,0.044238,0.401951,0.0045,0.258668,0.058737,SO
0.08439,0.042114,0.070073,0.027228,0.106476,0.048025,0.402478,0.136336,0.26633,0.014522,SO
0.067508,0.143142,0.062744,0.059729,0,0.040415,0.387971,0,0.250818,0,SO
0.217257,0.193302,0.198735,0.215901,0.165057,0.126406,0.42421,0.145823,0.260509,0.142215,SO
0.246479,0.258339,0.211112,0.28095,0.337635,0.304986,0.526795,0.292761,0.395854,0.299345,SO
0.231929,0.232358,0.21566,0.218247,0.241769,0.186523,0.470075,0.10295,0.292626,0.135746,SO
0.220706,0.250417,0.205144,0.227499,0.226679,0.194411,0.457541,0.184483,0.281644,0.154782,SO
0.236645,0.278162,0.200535,0.268754,0.308991,0.276416,0.49476,0.299163,0.348301,0.252595,SO
0.423123,0.463591,0.435559,0.531914,0.532686,0.47644,0.641925,0.514013,0.503337,0.429822,SO
0.240403,0.232358,0.225134,0.260414,0.23601,0.219625,0.442941,0.206515,0.368464,0.243327,SO
0.250736,0.273682,0.242481,0.298578,0.25327,0.236365,0.445551,0.232427,0.381445,0.250303,SO
0.2362,0.258339,0.210602,0.206375,0.254095,0.272161,0.475408,0.242333,0.34872,0.228912,SO
0.235306,0.237373,0.218356,0.254042,0.236654,0.20469,0.436072,0.224831,0.353702,0.211248,SO
0.183754,0.157898,0.151472,0.114764,0.203249,0.199584,0.475328,0.17006,0.363307,0.178552,SO
0.194398,0.120966,0.140024,0.132522,0.229085,0.199584,0.494834,0.167111,0.382451,0.283109,SO
0.216418,0.177991,0.167848,0.168501,0.311165,0.256897,0.526597,0.270636,0.429551,0.252595,SO
0.229082,0.204376,0.16631,0.243195,0.344219,0.259114,0.537827,0.256739,0.431173,0.243327,SO
0.17464,0.118672,0.121005,0.135406,0.260637,0.202146,0.501368,0.219684,0.375726,0.261608,SO
0.129102,0.061473,0.077225,0.049184,0.127348,0.097555,0.449726,0.136336,0.347602,0.160888,SO
0.122864,0.042114,0.080418,0.023449,0.124863,0.090848,0.436905,0.066468,0.32514,0.093984,SO
0.14227,0.118672,0.099631,0.132522,0.154574,0.129486,0.447068,0.119996,0.330794,0.148559,SO
0.121667,0.0949,0.08686,0.105583,0.172819,0.110638,0.463464,0.106419,0.363707,0.129146,SO
0.229654,0.215123,0.200957,0.245388,0.280277,0.229277,0.488363,0.192891,0.349138,0.189818,SO
0.194137,0.170086,0.139765,0.215901,0.186499,0.194411,0.443032,0.129881,0.308189,0.181405,SO
0.208372,0.187635,0.172182,0.206375,0.246196,0.226886,0.483055,0.167111,0.360227,0.213831,SO
0.224112,0.240678,0.198841,0.290838,0.273237,0.243328,0.487065,0.261426,0.376238,0.243327,SO
0.201095,0.183808,0.158132,0.203958,0.255329,0.270016,0.502743,0.222266,0.387682,0.203376,SO
0.150085,0.140984,0.109291,0.114764,0.118163,0.084025,0.410978,0.0045,0.259037,0.066905,SO
0.14322,0.118672,0.113437,0.123741,0.101244,0.077082,0.396296,0.046876,0.24682,0.066905,SO
0.124225,0.079853,0.08137,0.073372,0.109929,0.059173,0.405098,0.022001,0.249111,0.037377,SO
0.182529,0.177991,0.148588,0.155041,0.191283,0.178474,0.440762,0.172987,0.298388,0.160888,SO
0.229082,0.230671,0.19799,0.309914,0.267881,0.224481,0.494239,0.217086,0.351636,0.226446,SO
0.226435,0.230671,0.20504,0.266685,0.259824,0.231654,0.477796,0.192891,0.341098,0.213831,SO
0.204382,0.181879,0.148588,0.194143,0.270071,0.202146,0.490261,0.187306,0.339236,0.206021,SO
0.213156,0.166069,0.177139,0.160479,0.228649,0.147476,0.453401,0.175893,0.305327,0.208645,SO
0.072912,0.006323,0,0.011895,0.042151,0.040415,0.368704,0.038758,0.21524,0.142215,SO
0.08655,0.006323,0.022693,0.023449,0.065616,0.024741,0.380409,0.038758,0.224202,0.138997,SO
0.160061,0.129999,0.091791,0.114764,0.191758,0.199584,0.460096,0.167111,0.334022,0.181405,SO
0.17799,0.132223,0.114004,0.160479,0.212183,0.175754,0.476206,0.152024,0.356709,0.181405,SO
0.1721,0.129999,0.100523,0.17114,0.249539,0.170258,0.485915,0.190108,0.34648,0.19802,SO
0.193745,0.162007,0.138072,0.163171,0.257582,0.183858,0.498231,0.222266,0.387558,0.206021,SO
0.159021,0.084938,0.091943,0.038356,0.17381,0.144534,0.447602,0.139524,0.329612,0.151685,SO
